{
  "pictureUrl": "https://c2.staticflickr.com/4/3381/3190647465_1d9bd50083_o.jpg",
  "reviews": [
  {
    "id": 1,
    "author": {
      "name": "Crystal Lawson",
      "avatarUrl": "https://randomuser.me/api/portraits/men/76.jpg",
      "timestamp": "21 september 2016"
    },
    "date": "21.09.2016",
    "title": "Lovely place! Totally worth visiting.",
    "rating": 4,
    "content": "In hac habitasse platea dictumst. Mauris et orci eget arcu accumsan dictum. Proin sit amet ligula eget ex vehicula dapibus sed vitae quam. Duis ligula tortor, sagittis et congue ac, auctor vestibulum mi. Phasellus congue felis a quam malesuada, elementum laoreet ex porta. Duis non dignissim diam. Phasellus hendrerit facilisis elit, ut lacinia ante rutrum in. Sed auctor turpis non ligula tempor, sed tempus lectus varius.",
    "comments": []
  },
  {
    "id": 2,
    "author": {
      "name": "Leonard Kingsley",
      "avatarUrl": "https://randomuser.me/api/portraits/men/46.jpg",
      "timestamp": "21 september 2016"
    },
    "date": "21.09.2016",
    "title": "Lovely place! Totally worth visiting.",
    "rating": 4,
    "content": "In hac habitasse platea dictumst. Mauris et orci eget arcu accumsan dictum. Proin sit amet ligula eget ex vehicula dapibus sed vitae quam. Duis ligula tortor, sagittis et congue ac, auctor vestibulum mi. Phasellus congue felis a quam malesuada, elementum laoreet ex porta. Duis non dignissim diam. Phasellus hendrerit facilisis elit, ut lacinia ante rutrum in. Sed auctor turpis non ligula tempor, sed tempus lectus varius.",
    "comments": [
      {
        "id": 1,
        "author": {
          "name": "Judith Wilmers",
          "avatarUrl": "https://randomuser.me/api/portraits/women/63.jpg",
          "role": "Hotel Manager"
        },
        "content": "In hac habitasse platea dictumst. Mauris et orci eget arcu accumsan dictum. Proin sit amet ligula eget ex vehicula dapibus sed vitae q uam. Duis ligula tortor, sagittis et congue ac, auctor vestibulum mi. Phasellus congue felis a quam malesuada, elementum laoreet ex porta. Duis non dignissim diam. Phasellus hendrerit facilisis elit, ut lacinia ante rutrum in. Sed auctor turpis non ligula tempor, sed tempus lectus varius."
      }
    ]
  },
  {
    "id": 3,
    "author": {
      "name": "Freddy Miller Jr.",
      "avatarUrl": "https://randomuser.me/api/portraits/men/86.jpg",
      "timestamp": "21 september 2016"
    },
    "date": "21.09.2016",
    "title": "Lovely place! Totally worth visiting.",
    "rating": 2,
    "content": "In hac habitasse platea dictumst. Mauris et orci eget arcu accumsan dictum. Proin sit amet ligula eget ex vehicula dapibus sed vitae quam. Duis ligula tortor, sagittis et congue ac, auctor vestibulum mi. Phasellus congue felis a quam malesuada, elementum laoreet ex porta. Duis non dignissim diam. Phasellus hendrerit facilisis elit, ut lacinia ante rutrum in. Sed auctor turpis non ligula tempor, sed tempus lectus varius.",
    "comments": []
  },
  {
    "id": 4,
    "author": {
      "name": "Darlene Warren",
      "avatarUrl": "https://randomuser.me/api/portraits/women/66.jpg",
      "timestamp": "21 september 2016"
    },
    "date": "21.09.2016",
    "title": "Lovely place! Totally worth visiting.",
    "rating": 4,
    "content": "In hac habitasse platea dictumst. Mauris et orci eget arcu accumsan dictum. Proin sit amet ligula eget ex vehicula dapibus sed vitae quam. Duis ligula tortor, sagittis et congue ac, auctor vestibulum mi. Phasellus congue felis a quam malesuada, elementum laoreet ex porta. Duis non dignissim diam. Phasellus hendrerit facilisis elit, ut lacinia ante rutrum in. Sed auctor turpis non ligula tempor, sed tempus lectus varius.",
    "comments": []
  }
]
}
